…
## Borrar Datos Char

``` r
primer_tiempo2020
```

    ## # A tibble: 130 x 49
    ##    torneo equipo id_partido partido fasepartido local tiempo accuratePass
    ##    <chr>  <chr>  <chr>      <chr>   <chr>       <lgl> <chr>         <dbl>
    ##  1 Prime~ Uni<f~ 6xszsf73j~ Univer~ Regular Se~ FALSE fh              235
    ##  2 Prime~ Unive~ 6xszsf73j~ Univer~ Regular Se~ TRUE  fh              199
    ##  3 Prime~ Evert~ e88gat05j~ Univer~ Regular Se~ FALSE fh              157
    ##  4 Prime~ Unive~ e88gat05j~ Univer~ Regular Se~ TRUE  fh              192
    ##  5 Prime~ Curic~ 35ijq76er~ Univer~ Regular Se~ FALSE fh              142
    ##  6 Prime~ Unive~ 35ijq76er~ Univer~ Regular Se~ TRUE  fh              168
    ##  7 Prime~ Coqui~ 9o9ji2f68~ Univer~ Regular Se~ FALSE fh              190
    ##  8 Prime~ Unive~ 9o9ji2f68~ Univer~ Regular Se~ TRUE  fh              200
    ##  9 Prime~ Santi~ 357wqv370~ Univer~ Regular Se~ FALSE fh              156
    ## 10 Prime~ Unive~ 357wqv370~ Univer~ Regular Se~ TRUE  fh               92
    ## # ... with 120 more rows, and 41 more variables: wonTackle <dbl>,
    ## #   lostCorners <dbl>, goalsConceded <dbl>, saves <dbl>,
    ## #   ontargetScoringAtt <dbl>, totalScoringAtt <dbl>, subsMade <dbl>,
    ## #   totalThrows <dbl>, totalYellowCard <dbl>, goalKicks <dbl>, totalPass <dbl>,
    ## #   fkFoulWon <dbl>, totalTackle <dbl>, fkFoulLost <dbl>,
    ## #   possessionPercentage <dbl>, totalClearance <dbl>, formationUsed <dbl>,
    ## #   blockedScoringAtt <dbl>, goalAssist <dbl>, goals <dbl>, totalOffside <dbl>,
    ## #   shotOffTarget <dbl>, wonCorners <dbl>, cornerTaken <dbl>,
    ## #   penaltyConceded <dbl>, penaltyFaced <dbl>, penGoalsConceded <dbl>,
    ## #   penaltyWon <dbl>, ownGoals <dbl>, penaltySave <dbl>, secondYellow <dbl>,
    ## #   totalRedCard <dbl>, posesion_Rival <dbl>, precision_pases <dbl>,
    ## #   precision_tiros <dbl>, minutos_juego <dbl>, minutos_juegorival <dbl>,
    ## #   golesSalvados <dbl>, foulsInofensivos <dbl>, cortarJuegoContrario <dbl>,
    ## #   juegoCortado <dbl>

``` r
primer_tiempo2020 <- primer_tiempo2020[,!(colnames(primer_tiempo2020) %in% c("id_partido", "fasepartido", "local", "tiempo","formationUsed", "torneo"))]
primer_tiempo2020
```

    ## # A tibble: 130 x 43
    ##    equipo partido accuratePass wonTackle lostCorners goalsConceded saves
    ##    <chr>  <chr>          <dbl>     <dbl>       <dbl>         <dbl> <dbl>
    ##  1 Uni<f~ Univer~          235         2           3             1     4
    ##  2 Unive~ Univer~          199         2           0             0     1
    ##  3 Evert~ Univer~          157         7           6             0     3
    ##  4 Unive~ Univer~          192         4           1             0     2
    ##  5 Curic~ Univer~          142         6           3             2     2
    ##  6 Unive~ Univer~          168         8           1             1     2
    ##  7 Coqui~ Univer~          190         3           0             0     2
    ##  8 Unive~ Univer~          200         5           0             0     0
    ##  9 Santi~ Univer~          156         4           3             0     0
    ## 10 Unive~ Univer~           92         4           1             1     1
    ## # ... with 120 more rows, and 36 more variables: ontargetScoringAtt <dbl>,
    ## #   totalScoringAtt <dbl>, subsMade <dbl>, totalThrows <dbl>,
    ## #   totalYellowCard <dbl>, goalKicks <dbl>, totalPass <dbl>, fkFoulWon <dbl>,
    ## #   totalTackle <dbl>, fkFoulLost <dbl>, possessionPercentage <dbl>,
    ## #   totalClearance <dbl>, blockedScoringAtt <dbl>, goalAssist <dbl>,
    ## #   goals <dbl>, totalOffside <dbl>, shotOffTarget <dbl>, wonCorners <dbl>,
    ## #   cornerTaken <dbl>, penaltyConceded <dbl>, penaltyFaced <dbl>,
    ## #   penGoalsConceded <dbl>, penaltyWon <dbl>, ownGoals <dbl>,
    ## #   penaltySave <dbl>, secondYellow <dbl>, totalRedCard <dbl>,
    ## #   posesion_Rival <dbl>, precision_pases <dbl>, precision_tiros <dbl>,
    ## #   minutos_juego <dbl>, minutos_juegorival <dbl>, golesSalvados <dbl>,
    ## #   foulsInofensivos <dbl>, cortarJuegoContrario <dbl>, juegoCortado <dbl>

## Analisis descriptivo

``` r
fh2020 <- primer_tiempo2020[order(primer_tiempo2020$accuratePass, decreasing = TRUE),]
fh2020
```

    ## # A tibble: 130 x 43
    ##    equipo partido accuratePass wonTackle lostCorners goalsConceded saves
    ##    <chr>  <chr>          <dbl>     <dbl>       <dbl>         <dbl> <dbl>
    ##  1 Unive~ Univer~          269         2           3             0     2
    ##  2 Depor~ Deport~          253        11           1             1     1
    ##  3 Uni<f~ Uni<f3~          252         6           3             1     3
    ##  4 Curic~ Univer~          245         5           2             0     2
    ##  5 Uni<f~ Uni<f3~          237         5           2             0     0
    ##  6 Uni<f~ Univer~          235         2           3             1     4
    ##  7 Colo ~ Colo C~          231         4           0             0     0
    ##  8 Uni<f~ Uni<f3~          224         7           0             1     0
    ##  9 Audax~ Audax ~          220         2           1             1     1
    ## 10 Audax~ Audax ~          219         6           1             0     0
    ## # ... with 120 more rows, and 36 more variables: ontargetScoringAtt <dbl>,
    ## #   totalScoringAtt <dbl>, subsMade <dbl>, totalThrows <dbl>,
    ## #   totalYellowCard <dbl>, goalKicks <dbl>, totalPass <dbl>, fkFoulWon <dbl>,
    ## #   totalTackle <dbl>, fkFoulLost <dbl>, possessionPercentage <dbl>,
    ## #   totalClearance <dbl>, blockedScoringAtt <dbl>, goalAssist <dbl>,
    ## #   goals <dbl>, totalOffside <dbl>, shotOffTarget <dbl>, wonCorners <dbl>,
    ## #   cornerTaken <dbl>, penaltyConceded <dbl>, penaltyFaced <dbl>,
    ## #   penGoalsConceded <dbl>, penaltyWon <dbl>, ownGoals <dbl>,
    ## #   penaltySave <dbl>, secondYellow <dbl>, totalRedCard <dbl>,
    ## #   posesion_Rival <dbl>, precision_pases <dbl>, precision_tiros <dbl>,
    ## #   minutos_juego <dbl>, minutos_juegorival <dbl>, golesSalvados <dbl>,
    ## #   foulsInofensivos <dbl>, cortarJuegoContrario <dbl>, juegoCortado <dbl>

## Sub DataFrames

``` r
fh2020_pases = fh2020[,colnames(primer_tiempo2020) %in% c("equipo", "partido", "accuratePass", "totalPass", "precision_pases")]
fh2020_pases = fh2020_pases[order(fh2020_pases$precision_pases, decreasing = TRUE),]

fh2020_pases
```

    ## # A tibble: 130 x 5
    ##    equipo        partido                  accuratePass totalPass precision_pases
    ##    <chr>         <chr>                           <dbl>     <dbl>           <dbl>
    ##  1 Audax Italia~ Audax Italiano vs Cobre~          220       246            89.4
    ##  2 Universidad ~ Universidad Cat<f3>lica~          269       304            88.5
    ##  3 Uni<f3>n La ~ Uni<f3>n La Calera vs L~          252       285            88.4
    ##  4 Deportivo An~ Deportivo Antofagasta v~          253       289            87.5
    ##  5 Uni<f3>n La ~ Universidad de Chile vs~          235       271            86.7
    ##  6 Universidad ~ Huachipato vs Universid~          202       233            86.7
    ##  7 Colo Colo     Colo Colo vs Universida~          231       267            86.5
    ##  8 Deportivo An~ Deportivo Antofagasta v~          162       188            86.2
    ##  9 Universidad ~ Deportivo Antofagasta v~          202       235            86.0
    ## 10 Uni<f3>n La ~ Uni<f3>n La Calera vs U~          176       205            85.9
    ## # ... with 120 more rows

``` r
fh2020_tiros <- NULL

fh2020_tiros = fh2020[,colnames(primer_tiempo2020) %in% c("equipo", "partido", "goals", "ontargetScoringAtt", "totalScoringAtt", "blockedScoringAtt", "shotOffTarget", "precision_tiros")]
fh2020_tiros = fh2020_tiros[order(fh2020_tiros$goals, decreasing = TRUE),]
fh2020_tiros
```

    ## # A tibble: 130 x 8
    ##    equipo partido ontargetScoring~ totalScoringAtt blockedScoringA~ goals
    ##    <chr>  <chr>              <dbl>           <dbl>            <dbl> <dbl>
    ##  1 Uni<f~ Uni<f3~                4               5                0     3
    ##  2 Unive~ Univer~                3               8                2     2
    ##  3 Colo ~ Colo C~                4              10                2     2
    ##  4 Audax~ Audax ~                3               9                2     2
    ##  5 Unive~ Deport~                5               9                2     2
    ##  6 Unive~ Univer~                4               7                1     2
    ##  7 Depor~ Deport~                5              14                4     2
    ##  8 Uni<f~ O'Higg~                3               4                1     2
    ##  9 Depor~ Deport~                2               7                2     2
    ## 10 La Se~ La Ser~                4               7                1     2
    ## # ... with 120 more rows, and 2 more variables: shotOffTarget <dbl>,
    ## #   precision_tiros <dbl>
…
